{"name":"obtenemos la informacion de los usuarios registrados","id":"obtener-informacion-de-usuarios;obtenemos-la-informacion-de-los-usuarios-registrados","testSteps":[{"number":1,"description":"Given quiero listar la informacion de usuarios","duration":713,"startTime":"2023-07-13T12:09:12.451969100-05:00[America/Bogota]","result":"SUCCESS","precondition":false,"level":0,"children":[{"number":2,"description":"Obtener listar usuarios","duration":658,"startTime":"2023-07-13T12:09:12.501905100-05:00[America/Bogota]","result":"SUCCESS","precondition":false,"level":1,"children":[{"number":3,"description":"Api get parametros","duration":645,"startTime":"2023-07-13T12:09:12.509185200-05:00[America/Bogota]","result":"SUCCESS","precondition":false,"level":2,"children":[{"number":4,"description":"Cliente executes a GET on the resource /users","duration":638,"startTime":"2023-07-13T12:09:12.511181800-05:00[America/Bogota]","result":"SUCCESS","precondition":false,"level":3,"children":[{"number":5,"description":"GET https://reqres.in/api/users?pages\u003d2","duration":0,"startTime":"2023-07-13T12:09:13.149908600-05:00[America/Bogota]","result":"SUCCESS","restQuery":{"method":"GET","path":"https://reqres.in/api/users?pages\u003d2","content":"","contentType":"application/json","requestHeaders":"Accept\u003d*/*\r\n\t\t\t\tContent-Type\u003dapplication/json","requestCookies":"","responseHeaders":"Date: Thu, 13 Jul 2023 17:10:51 GMT\r\nContent-Type: application/json; charset\u003dutf-8\r\nTransfer-Encoding: chunked\r\nConnection: keep-alive\r\nX-Powered-By: Express\r\nAccess-Control-Allow-Origin: *\r\nEtag: W/\"3e4-2RLXvr5wTg9YQ6aH95CkYoFNuO8\"\r\nVia: 1.1 vegur\r\nCache-Control: max-age\u003d14400\r\nCF-Cache-Status: MISS\r\nReport-To: {\"endpoints\":[{\"url\":\"https:\\/\\/a.nel.cloudflare.com\\/report\\/v3?s\u003do3HmPEsNh3jUJdZI180VlbSLhtBoo2hozw%2B7VdTIcwf8poQbGTzobjEiGDNpxwuKtadTkv1%2B9w5%2Fy7LXurK4I8CHuE48YX6hp0DKxjksT3Q3FfNuZGakH84SBA%3D%3D\"}],\"group\":\"cf-nel\",\"max_age\":604800}\r\nNEL: {\"success_fraction\":0,\"report_to\":\"cf-nel\",\"max_age\":604800}\r\nVary: Accept-Encoding\r\nServer: cloudflare\r\nCF-RAY: 7e63244b984867da-MIA\r\nContent-Encoding: gzip\r","responseCookies":"\r","responseBody":"{\n    \"page\": 1,\n    \"per_page\": 6,\n    \"total\": 12,\n    \"total_pages\": 2,\n    \"data\": [\n        {\n            \"id\": 1,\n            \"email\": \"george.bluth@reqres.in\",\n            \"first_name\": \"George\",\n            \"last_name\": \"Bluth\",\n            \"avatar\": \"https://reqres.in/img/faces/1-image.jpg\"\n        },\n        {\n            \"id\": 2,\n            \"email\": \"janet.weaver@reqres.in\",\n            \"first_name\": \"Janet\",\n            \"last_name\": \"Weaver\",\n            \"avatar\": \"https://reqres.in/img/faces/2-image.jpg\"\n        },\n        {\n            \"id\": 3,\n            \"email\": \"emma.wong@reqres.in\",\n            \"first_name\": \"Emma\",\n            \"last_name\": \"Wong\",\n            \"avatar\": \"https://reqres.in/img/faces/3-image.jpg\"\n        },\n        {\n            \"id\": 4,\n            \"email\": \"eve.holt@reqres.in\",\n            \"first_name\": \"Eve\",\n            \"last_name\": \"Holt\",\n            \"avatar\": \"https://reqres.in/img/faces/4-image.jpg\"\n        },\n        {\n            \"id\": 5,\n            \"email\": \"charles.morris@reqres.in\",\n            \"first_name\": \"Charles\",\n            \"last_name\": \"Morris\",\n            \"avatar\": \"https://reqres.in/img/faces/5-image.jpg\"\n        },\n        {\n            \"id\": 6,\n            \"email\": \"tracey.ramos@reqres.in\",\n            \"first_name\": \"Tracey\",\n            \"last_name\": \"Ramos\",\n            \"avatar\": \"https://reqres.in/img/faces/6-image.jpg\"\n        }\n    ],\n    \"support\": {\n        \"url\": \"https://reqres.in/#support-heading\",\n        \"text\": \"To keep ReqRes free, contributions towards server costs are appreciated!\"\n    }\n}","statusCode":200},"precondition":false,"level":4}]}]}]}]},{"number":6,"description":"Then verifico que se listen los usuarios","duration":592,"startTime":"2023-07-13T12:09:13.166923600-05:00[America/Bogota]","result":"SUCCESS","precondition":false,"level":0,"children":[{"number":7,"description":"A valid response is returned","duration":579,"startTime":"2023-07-13T12:09:13.172484700-05:00[America/Bogota]","result":"SUCCESS","precondition":false,"level":1}]}],"userStory":{"id":"obtener-informacion-de-usuarios","storyName":"obtener informacion de usuarios","displayName":"obtener informacion de usuarios","path":"Get.feature","type":"feature","qualifiedTag":{"name":"obtener informacion de usuarios","type":"feature","displayName":"obtener informacion de usuarios"}},"featureTag":{"name":"obtener informacion de usuarios","type":"feature","displayName":"obtener informacion de usuarios"},"title":"obtenemos la informacion de los usuarios registrados","description":"","tags":[{"name":"Windows","type":"context","displayName":"Windows"},{"name":"obtener informacion de usuarios","type":"feature","displayName":"obtener informacion de usuarios"},{"name":"Apis","type":"tag","displayName":"Apis"}],"allTags":[{"name":"Windows","type":"context","displayName":"Windows"},{"name":"obtener informacion de usuarios","type":"feature","displayName":"obtener informacion de usuarios"},{"name":"Apis","type":"tag","displayName":"Apis"}],"startTime":"2023-07-13T12:09:12.444186800-05:00[America/Bogota]","duration":1316,"projectKey":"","isManualTestingUpToDate":false,"context":"windows","manual":false,"testSource":"Cucumber","actors":[{"name":"Cliente","can":["browse the web","call an API at https://reqres.in/api"]}],"result":"SUCCESS"}